%!PS-Adobe-3.0 EPSF-3.0
%%Creator: MATLAB, The MathWorks, Inc. Version 7.12.0.635 (R2011a). Operating System: Linux 3.13.0-32-generic #57-Ubuntu SMP Tue Jul 15 03:51:08 UTC 2014 x86_64.
%%Title: /home/sanjiban/ros/aacus_phase2_cmu_ws/src/route_common/matlab/optimization/vel_comparison_2.eps
%%CreationDate: 12/11/2014  17:07:09
%%DocumentNeededFonts: Helvetica
%%DocumentProcessColors: Cyan Magenta Yellow Black
%%LanguageLevel: 2
%%Pages: 1
%%BoundingBox:    81   227   529   564
%%EndComments

%%BeginProlog
% MathWorks dictionary
/MathWorks 160 dict begin
% definition operators
/bdef {bind def} bind def
/ldef {load def} bind def
/xdef {exch def} bdef
/xstore {exch store} bdef
% operator abbreviations
/c  /clip ldef
/cc /concat ldef
/cp /closepath ldef
/gr /grestore ldef
/gs /gsave ldef
/mt /moveto ldef
/np /newpath ldef
/cm /currentmatrix ldef
/sm /setmatrix ldef
/rm /rmoveto ldef
/rl /rlineto ldef
/s {show newpath} bdef
/sc {setcmykcolor} bdef
/sr /setrgbcolor ldef
/sg /setgray ldef
/w /setlinewidth ldef
/j /setlinejoin ldef
/cap /setlinecap ldef
/rc {rectclip} bdef
/rf {rectfill} bdef
% page state control
/pgsv () def
/bpage {/pgsv save def} bdef
/epage {pgsv restore} bdef
/bplot /gsave ldef
/eplot {stroke grestore} bdef
% orientation switch
/portraitMode 0 def /landscapeMode 1 def /rotateMode 2 def
% coordinate system mappings
/dpi2point 0 def
% font control
/FontSize 0 def
/FMS {/FontSize xstore findfont [FontSize 0 0 FontSize neg 0 0]
  makefont setfont} bdef
/reencode {exch dup where {pop load} {pop StandardEncoding} ifelse
  exch dup 3 1 roll findfont dup length dict begin
  { 1 index /FID ne {def}{pop pop} ifelse } forall
  /Encoding exch def currentdict end definefont pop} bdef
/isroman {findfont /CharStrings get /Agrave known} bdef
/FMSR {3 1 roll 1 index dup isroman {reencode} {pop pop} ifelse
  exch FMS} bdef
/csm {1 dpi2point div -1 dpi2point div scale neg translate
 dup landscapeMode eq {pop -90 rotate}
  {rotateMode eq {90 rotate} if} ifelse} bdef
% line types: solid, dotted, dashed, dotdash
/SO { [] 0 setdash } bdef
/DO { [.5 dpi2point mul 4 dpi2point mul] 0 setdash } bdef
/DA { [6 dpi2point mul] 0 setdash } bdef
/DD { [.5 dpi2point mul 4 dpi2point mul 6 dpi2point mul 4
  dpi2point mul] 0 setdash } bdef
% macros for lines and objects
/L {lineto stroke} bdef
/MP {3 1 roll moveto 1 sub {rlineto} repeat} bdef
/AP {{rlineto} repeat} bdef
/PDlw -1 def
/W {/PDlw currentlinewidth def setlinewidth} def
/PP {closepath eofill} bdef
/DP {closepath stroke} bdef
/MR {4 -2 roll moveto dup  0 exch rlineto exch 0 rlineto
  neg 0 exch rlineto closepath} bdef
/FR {MR stroke} bdef
/PR {MR fill} bdef
/L1i {{currentfile picstr readhexstring pop} image} bdef
/tMatrix matrix def
/MakeOval {newpath tMatrix currentmatrix pop translate scale
0 0 1 0 360 arc tMatrix setmatrix} bdef
/FO {MakeOval stroke} bdef
/PO {MakeOval fill} bdef
/PD {currentlinewidth 2 div 0 360 arc fill
   PDlw -1 eq not {PDlw w /PDlw -1 def} if} def
/FA {newpath tMatrix currentmatrix pop translate scale
  0 0 1 5 -2 roll arc tMatrix setmatrix stroke} bdef
/PA {newpath tMatrix currentmatrix pop	translate 0 0 moveto scale
  0 0 1 5 -2 roll arc closepath tMatrix setmatrix fill} bdef
/FAn {newpath tMatrix currentmatrix pop translate scale
  0 0 1 5 -2 roll arcn tMatrix setmatrix stroke} bdef
/PAn {newpath tMatrix currentmatrix pop translate 0 0 moveto scale
  0 0 1 5 -2 roll arcn closepath tMatrix setmatrix fill} bdef
/vradius 0 def /hradius 0 def /lry 0 def
/lrx 0 def /uly 0 def /ulx 0 def /rad 0 def
/MRR {/vradius xdef /hradius xdef /lry xdef /lrx xdef /uly xdef
  /ulx xdef newpath tMatrix currentmatrix pop ulx hradius add uly
  vradius add translate hradius vradius scale 0 0 1 180 270 arc 
  tMatrix setmatrix lrx hradius sub uly vradius add translate
  hradius vradius scale 0 0 1 270 360 arc tMatrix setmatrix
  lrx hradius sub lry vradius sub translate hradius vradius scale
  0 0 1 0 90 arc tMatrix setmatrix ulx hradius add lry vradius sub
  translate hradius vradius scale 0 0 1 90 180 arc tMatrix setmatrix
  closepath} bdef
/FRR {MRR stroke } bdef
/PRR {MRR fill } bdef
/MlrRR {/lry xdef /lrx xdef /uly xdef /ulx xdef /rad lry uly sub 2 div def
  newpath tMatrix currentmatrix pop ulx rad add uly rad add translate
  rad rad scale 0 0 1 90 270 arc tMatrix setmatrix lrx rad sub lry rad
  sub translate rad rad scale 0 0 1 270 90 arc tMatrix setmatrix
  closepath} bdef
/FlrRR {MlrRR stroke } bdef
/PlrRR {MlrRR fill } bdef
/MtbRR {/lry xdef /lrx xdef /uly xdef /ulx xdef /rad lrx ulx sub 2 div def
  newpath tMatrix currentmatrix pop ulx rad add uly rad add translate
  rad rad scale 0 0 1 180 360 arc tMatrix setmatrix lrx rad sub lry rad
  sub translate rad rad scale 0 0 1 0 180 arc tMatrix setmatrix
  closepath} bdef
/FtbRR {MtbRR stroke } bdef
/PtbRR {MtbRR fill } bdef
/stri 6 array def /dtri 6 array def
/smat 6 array def /dmat 6 array def
/tmat1 6 array def /tmat2 6 array def /dif 3 array def
/asub {/ind2 exch def /ind1 exch def dup dup
  ind1 get exch ind2 get sub exch } bdef
/tri_to_matrix {
  2 0 asub 3 1 asub 4 0 asub 5 1 asub
  dup 0 get exch 1 get 7 -1 roll astore } bdef
/compute_transform {
  dmat dtri tri_to_matrix tmat1 invertmatrix 
  smat stri tri_to_matrix tmat2 concatmatrix } bdef
/ds {stri astore pop} bdef
/dt {dtri astore pop} bdef
/db {2 copy /cols xdef /rows xdef mul dup 3 mul string
  currentfile 
  3 index 0 eq {/ASCIIHexDecode filter}
  {/ASCII85Decode filter 3 index 2 eq {/RunLengthDecode filter} if }
  ifelse exch readstring pop
  dup 0 3 index getinterval /rbmap xdef
  dup 2 index dup getinterval /gbmap xdef
  1 index dup 2 mul exch getinterval /bbmap xdef pop pop}bdef
/it {gs np dtri aload pop moveto lineto lineto cp c
  cols rows 8 compute_transform 
  rbmap gbmap bbmap true 3 colorimage gr}bdef
/il {newpath moveto lineto stroke}bdef
currentdict end def
%%EndProlog

%%BeginSetup
MathWorks begin

0 cap

end
%%EndSetup

%%Page: 1 1
%%BeginPageSetup
%%PageBoundingBox:    81   227   529   564
MathWorks begin
bpage
%%EndPageSetup

%%BeginObject: obj1
bplot

/dpi2point 12 def
portraitMode 0972 6768 csm

    0     0  5376  4033 rc
86 dict begin %Colortable dictionary
/c0 { 0.000000 0.000000 0.000000 sr} bdef
/c1 { 1.000000 1.000000 1.000000 sr} bdef
/c2 { 0.900000 0.000000 0.000000 sr} bdef
/c3 { 0.000000 0.820000 0.000000 sr} bdef
/c4 { 0.000000 0.000000 0.800000 sr} bdef
/c5 { 0.910000 0.820000 0.320000 sr} bdef
/c6 { 1.000000 0.260000 0.820000 sr} bdef
/c7 { 0.000000 0.820000 0.820000 sr} bdef
c0
1 j
1 sg
   0    0 5377 4034 rf
6 w
0 3277 4166 0 0 -3277 699 3579 4 MP
PP
-4166 0 0 3277 4166 0 0 -3277 699 3579 5 MP stroke
4 w
DO
SO
6 w
0 sg
 699 3579 mt 4865 3579 L
 699 3579 mt  699  302 L
 699 3579 mt  699 3537 L
%%IncludeResource: font Helvetica
/Helvetica /ISOLatin1Encoding 168 FMSR

 653 3769 mt 
(0) s
1393 3579 mt 1393 3537 L
1207 3769 mt 
(1000) s
2087 3579 mt 2087 3537 L
1901 3769 mt 
(2000) s
2782 3579 mt 2782 3537 L
2596 3769 mt 
(3000) s
3476 3579 mt 3476 3537 L
3290 3769 mt 
(4000) s
4170 3579 mt 4170 3537 L
3984 3769 mt 
(5000) s
4865 3579 mt 4865 3537 L
4679 3769 mt 
(6000) s
 699 3579 mt  740 3579 L
 571 3641 mt 
(0) s
 699 3032 mt  740 3032 L
 478 3094 mt 
(20) s
 699 2486 mt  740 2486 L
 478 2548 mt 
(40) s
 699 1940 mt  740 1940 L
 478 2002 mt 
(60) s
 699 1394 mt  740 1394 L
 478 1456 mt 
(80) s
 699  848 mt  740  848 L
 384  910 mt 
(100) s
 699  302 mt  740  302 L
 384  364 mt 
(120) s
gs 699 302 4167 3278 rc
/c8 { 0.000000 1.000000 0.000000 sr} bdef
c8
699 1394 PD
24 w
169 203 954 0 424 -546 699 1394 4 MP stroke
263 0 2246 1051 2 MP stroke
DA
6 w
/c9 { 1.000000 0.000000 0.000000 sr} bdef
c9
1810 0 699 848 2 MP stroke
SO
24 w
c8
215 0 2509 1051 2 MP stroke
39 50 11 -13 2724 1051 3 MP stroke
97 0 2774 1088 2 MP stroke
DA
6 w
c9
362 0 2509 848 2 MP stroke
SO
24 w
c8
103 0 2871 1088 2 MP stroke
1180 2731 328 0 198 -240 2974 1088 4 MP stroke
6 w
4680 3579 PD
DA
c9
1809 0 2871 848 2 MP stroke
SO
/c10 { 0.000000 0.000000 1.000000 sr} bdef
c10
699 1394 PD
24 w
695 981 456 0 424 -546 699 1394 4 MP stroke
235 0 2274 1829 2 MP stroke
DA
c9
1810 0 699 848 2 MP stroke
SO
c10
234 0 2509 1829 2 MP stroke
6 w
2743 1829 PD
24 w
128 0 2743 1829 2 MP stroke
DA
c9
362 0 2509 848 2 MP stroke
SO
c10
127 0 2871 1829 2 MP stroke
1083 2617 599 -867 2998 1829 3 MP stroke
6 w
4680 3579 PD
DA
24 w
c9
1809 0 2871 848 2 MP stroke
gr

24 w
c9
DA
0 sg
%%IncludeResource: font Helvetica
/Helvetica /ISOLatin1Encoding 216 FMSR

2169 3983 mt 
(Distance \(m\)) s
 281 2613 mt  -90 rotate
(Speed \(knots\)) s
90 rotate
%%IncludeResource: font Helvetica
/Helvetica /ISOLatin1Encoding 120 FMSR

 682 3622 mt 
( ) s
4849  344 mt 
( ) s
SO
6 w
DA
24 w
c9
403 -4 806 2788 2 MP stroke
SO
c8
403 -4 798 3311 2 MP stroke
6 w
1 sg
1186 3178 mt 2438 3178 L
2438 3178 mt 2438 2650 L
1186 3178 mt 1186 2650 L
1186 2650 mt 2438 2650 L
0 sg
%%IncludeResource: font Helvetica
/Helvetica /ISOLatin1Encoding 216 FMSR

1246 2876 mt 
(Limit) s
1246 3125 mt 
(Phase 1) s
1246 3374 mt 
(Phase 2) s
24 w
c10
466 -2 762 3055 2 MP stroke
6 w

end %%Color Dict

eplot
%%EndObject

epage
end

showpage

%%Trailer
%%EOF
